<?xml version="1.0" encoding="UTF-8" standalone="no"?>
<entries>
	<!-- This XML contains statistics about execution times. -->
	<!-- Submitted results will help the developers to optimize the server. -->
	<entry average="12,493,000" count="1" total="12,493,000" class="spawnengine.RiftSpawnManager$1"                method="run()" min="12,493,000" max="12,493,000" />
	<entry average= "6,826,266" count="6" total="40,957,600" class="skillengine.model.Skill$1"                     method="run()" min= "6,426,800" max= "7,044,000" />
	<entry average= "3,745,200" count="6" total="22,471,200" class="skillengine.model.Skill$2"                     method="run()" min= "3,317,900" max= "4,309,300" />
	<entry average= "1,747,100" count="1" total= "1,747,100" class="com.aionemu.commons.network.DisconnectionTask" method="run()" min= "1,747,100" max= "1,747,100" />
	<entry average=   "367,000" count="1" total=   "367,000" class="spawnengine.InstanceRiftSpawnManager$1"        method="run()" min=   "367,000" max=   "367,000" />
	<entry average=     "3,450" count="2" total=     "6,900" class="utils.gametime.GameTimeUpdater"                method="run()" min=     "1,200" max=     "5,700" />
</entries>
